TidyTemplate
…
## $youtube
## # A tibble: 247 x 25
##     year brand superbowl_ads_d youtube_url funny show_product_qu patriotic
##    <dbl> <chr> <chr>            <chr>       <lgl> <lgl>            <lgl>    
##  1  2018 Toyo https://superbo https://ww FALSE FALSE            FALSE    
##  2  2020 Bud  https://superbo https://ww TRUE  TRUE             FALSE    
##  3  2006 Bud  https://superbo https://ww TRUE  FALSE            FALSE    
##  4  2018 Hynu https://superbo https://ww FALSE TRUE             FALSE    
##  5  2003 Bud  https://superbo https://ww TRUE  TRUE             FALSE    
##  6  2020 Toyo https://superbo https://ww TRUE  TRUE             FALSE    
##  7  2020 Coca https://superbo https://ww TRUE  FALSE            FALSE    
##  8  2020 Kia   https://superbo https://ww FALSE FALSE            FALSE    
##  9  2020 Hynu https://superbo https://ww TRUE  TRUE             FALSE    
## 10  2020 Budw https://superbo https://ww FALSE TRUE             TRUE     
## #  with 237 more rows, and 18 more variables: celebrity <lgl>, danger <lgl>,
## #   animals <lgl>, use_sex <lgl>, id <chr>, kind <chr>, etag <chr>,
## #   view_count <dbl>, like_count <dbl>, dislike_count <dbl>,
## #   favorite_count <dbl>, comment_count <dbl>, published_at <dttm>,
## #   title <chr>, description <chr>, thumbnail <chr>, channel_title <chr>,
## #   category_id <dbl>
…
library(tidytext)

by_brand_category <- gathered_categories %>%
  group_by(brand, category) %>%
  summarize(pct = mean(value)) %>%
  ungroup()

## `summarise()` has grouped output by 'brand'. You can override using the `.groups` argument.

by_brand_category

## # A tibble: 70 x 3
##    brand     category                pct
##    <fct>     <chr>                 <dbl>
##  1 Bud Light Animals              0.381 
##  2 Bud Light Celebrity            0.270 
##  3 Bud Light Danger               0.429 
##  4 Bud Light Funny                0.952 
##  5 Bud Light Patriotic            0.0476
##  6 Bud Light Show Product Quickly 0.825 
##  7 Bud Light Use Sex              0.429 
##  8 Budweiser Animals              0.558 
##  9 Budweiser Celebrity            0.116 
## 10 Budweiser Danger               0.163 
## #  with 60 more rows
…
